<svg width="105" height="16" viewBox="0 0 105 16" fill="none" xmlns="http://www.w3.org/2000/svg">
<path fill-rule="evenodd" clip-rule="evenodd" d="M15.2974 2.23304H4.11131L15.1304 14.5183L13.4539 16L2.51131 3.82609V16H0V0H15.3043L15.2974 2.23304ZM33.0922 1.98261H20.3269V6.49739H29.8574V8.50087H20.3269V14.0174H33.113V16H17.8087V0H33.113L33.0922 1.98261ZM50.8939 8.50087H38.1078V16H35.6313V0H50.9356L50.8939 8.50087ZM68.793 16H53.4052V0H68.793V16ZM86.5808 1.96174H73.7947V6.47652H86.5808V16H71.2765V14.0174H84.0626V8.50087H71.2904V0H86.5948L86.5808 1.96174ZM104.543 1.96174H97.7739V16H95.2695V1.98261H89.0086V0H104.55L104.543 1.96174ZM66.2841 1.98243H55.9119V14.0172H66.2841V1.98243ZM38.1061 1.98243H48.3878V6.49721H38.1061V1.98243Z" fill="#86868B"/>
</svg>
